com/mycompany/myapp/config/WebConfigurerTest$MockServletRegistration.class
com/mycompany/myapp/web/rest/errors/ExceptionTranslatorTestController.class
com/mycompany/myapp/web/rest/LogsResourceIntTest.class
com/mycompany/myapp/config/WebConfigurerTest.class
com/mycompany/myapp/web/rest/errors/ExceptionTranslatorTestController$TestDTO.class
com/mycompany/myapp/web/rest/TestUtil$ZonedDateTimeMatcher.class
com/mycompany/myapp/web/rest/errors/ExceptionTranslatorIntTest.class
com/mycompany/myapp/security/jwt/TokenProviderTest.class
com/mycompany/myapp/web/rest/errors/ExceptionTranslatorTestController$TestResponseStatusException.class
com/mycompany/myapp/config/WebConfigurerTestController.class
com/mycompany/myapp/web/rest/AuditResourceIntTest.class
com/mycompany/myapp/web/rest/UserResourceIntTest.class
com/mycompany/myapp/security/jwt/JWTFilterTest.class
com/mycompany/myapp/service/UserServiceIntTest.class
com/mycompany/myapp/web/rest/ProfileInfoResourceIntTest.class
com/mycompany/myapp/config/WebConfigurerTest$MockFilterRegistration.class
com/mycompany/myapp/repository/CustomAuditEventRepositoryIntTest.class
com/mycompany/myapp/web/rest/TestUtil.class
com/mycompany/myapp/web/rest/UserJWTControllerIntTest.class
com/mycompany/myapp/service/MailServiceIntTest.class
com/mycompany/myapp/security/SecurityUtilsUnitTest.class
com/mycompany/myapp/web/rest/AccountResourceIntTest.class
